<?xml version="1.0" encoding="utf-8"?>
<svg width="22px" height="21px" viewBox="0 0 22 21" version="1.1" xmlns:xlink="http://www.w3.org/1999/xlink" xmlns="http://www.w3.org/2000/svg">
  <desc>Created with Lunacy</desc>
  <g id="linkedin-logo">
    <path d="M2.6691 0C1.05546 0 0 1.0573 0 2.44769C0 3.80778 1.02492 4.89717 2.6065 4.89717L2.638 4.89717C4.2829 4.89717 5.30588 3.80798 5.30588 2.44769C5.27488 1.0573 4.2829 0 2.6691 0ZM22 21L22 12.8751C22 8.52274 19.6735 6.4975 16.5702 6.49755C14.0653 6.49755 12.9462 7.87481 12.3196 8.83891L12.3196 6.83043L7.60318 6.83043C7.6667 8.16068 7.60318 21 7.60318 21L12.3201 21L12.3201 13.0868C12.3201 12.6628 12.3521 12.2413 12.4765 11.9384C12.8176 11.0911 13.593 10.2153 14.8959 10.2153C16.6027 10.2153 17.2847 11.5149 17.2847 13.4192L17.2847 21L22 21ZM12.3196 8.83891L12.3196 8.88469L12.2886 8.88469C12.2976 8.87013 12.3101 8.85394 12.3196 8.83891ZM4.99525 21L0.280142 21L0.280142 6.83043L4.99525 6.83043L4.99525 21Z" id="LinkedIn" fill="#3F76C2" fill-rule="evenodd" stroke="none" />
  </g>
</svg>