<?xml version="1.0" encoding="utf-8"?>
<svg width="26px" height="22px" viewBox="0 0 26 22" version="1.1" xmlns:xlink="http://www.w3.org/1999/xlink" xmlns="http://www.w3.org/2000/svg">
  <desc>Created with Lunacy</desc>
  <g id="telegram">
    <path d="M6.45017 12.722L0.459237 10.5489C-0.14925 10.3273 -0.154537 9.49247 0.452217 9.26505L25.0392 0.0472059C25.5604 -0.148705 26.0982 0.295085 25.9847 0.82706L21.5724 21.4534C21.4684 21.9404 20.8809 22.1612 20.4662 21.8683L14.443 17.6185C14.0772 17.3604 13.5786 17.3742 13.2285 17.6514L9.8891 20.2971C9.50144 20.6052 8.91739 20.4336 8.76902 19.9694L6.45017 12.722ZM20.1038 4.55695L8.39531 11.5652C7.94655 11.8344 7.73526 12.3611 7.88025 12.8541L9.1462 17.1771C9.23607 17.4834 9.69358 17.452 9.73718 17.1354L10.0663 14.7648C10.1284 14.3185 10.3475 13.9073 10.6871 13.6L20.35 4.87078C20.5307 4.70789 20.3143 4.43137 20.1038 4.55695Z" id="XMLID_497_" fill="#FFFFFF" fill-rule="evenodd" stroke="none" />
  </g>
</svg>